module codeberg.org/Birkenfunk/SQS-External-API

go 1.21

require (
	github.com/go-chi/chi/v5 v5.0.12
	github.com/swaggo/http-swagger v1.3.4
	github.com/swaggo/swag v1.16.3
)

require (
	github.com/KyleBanks/depth v1.2.1 // indirect
	github.com/go-openapi/jsonpointer v0.21.0 // indirect
	github.com/go-openapi/jsonreference v0.21.0 // indirect
	github.com/go-openapi/spec v0.21.0 // indirect
	github.com/go-openapi/swag v0.23.0 // indirect
	github.com/josharian/intern v1.0.0 // indirect
	github.com/mailru/easyjson v0.7.7 // indirect
	github.com/swaggo/files v1.0.1 // indirect
	golang.org/x/net v0.22.0 // indirect
	golang.org/x/tools v0.19.0 // indirect
	gopkg.in/yaml.v3 v3.0.1 // indirect
)
